{
	"info": {
		"count": 826,
		"pages": 42,
		"next": "https://rickandmortyapi.com/api/character/?page=20",
		"prev": "https://rickandmortyapi.com/api/character/?page=18"
	},
	"results": [
		{
			"id": 361,
			"name": "Toxic Rick",
			"status": "Dead",
			"species": "Humanoid",
			"type": "Rick's toxic side",
			"gender": "Male",
			"origin": {
				"name": "Detoxifier",
				"url": "https://rickandmortyapi.com/api/location/64"
			},
			"location": {
				"name": "Earth (Replacement Dimension)",
				"url": "https://rickandmortyapi.com/api/location/20"
			},
			"image": "https://rickandmortyapi.com/api/character/avatar/361.jpeg",
			"episode": [
				"https://rickandmortyapi.com/api/episode/27"
			],
			"url": "https://rickandmortyapi.com/api/character/361",
			"created": "2018-01-10T18:20:41.703Z"
		},
		{
			"id": 362,
			"name": "Traflorkian",
			"status": "Alive",
			"species": "Alien",
			"type": "Traflorkian",
			"gender": "unknown",
			"origin": {
				"name": "unknown",
				"url": ""
			},
			"location": {
				"name": "Worldender's lair",
				"url": "https://rickandmortyapi.com/api/location/4"
			},
			"image": "https://rickandmortyapi.com/api/character/avatar/362.jpeg",
			"episode": [
				"https://rickandmortyapi.com/api/episode/11",
				"https://rickandmortyapi.com/api/episode/13",
				"https://rickandmortyapi.com/api/episode/19",
				"https://rickandmortyapi.com/api/episode/21",
				"https://rickandmortyapi.com/api/episode/25"
			],
			"url": "https://rickandmortyapi.com/api/character/362",
			"created": "2018-01-10T18:52:08.927Z"
		},
		{
			"id": 363,
			"name": "Trandor",
			"status": "Alive",
			"species": "Alien",
			"type": "Krootabulan",
			"gender": "Male",
			"origin": {
				"name": "Krootabulon",
				"url": "https://rickandmortyapi.com/api/location/45"
			},
			"location": {
				"name": "Earth (Replacement Dimension)",
				"url": "https://rickandmortyapi.com/api/location/20"
			},
			"image": "https://rickandmortyapi.com/api/character/avatar/363.jpeg",
			"episode": [
				"https://rickandmortyapi.com/api/episode/30"
			],
			"url": "https://rickandmortyapi.com/api/character/363",
			"created": "2018-01-10T18:54:36.578Z"
		},
		{
			"id": 364,
			"name": "Tree Person",
			"status": "Dead",
			"species": "Humanoid",
			"type": "Teenyverse inhabitant",
			"gender": "unknown",
			"origin": {
				"name": "Kyle's Teenyverse",
				"url": "https://rickandmortyapi.com/api/location/50"
			},
			"location": {
				"name": "Kyle's Teenyverse",
				"url": "https://rickandmortyapi.com/api/location/50"
			},
			"image": "https://rickandmortyapi.com/api/character/avatar/364.jpeg",
			"episode": [
				"https://rickandmortyapi.com/api/episode/17"
			],
			"url": "https://rickandmortyapi.com/api/character/364",
			"created": "2018-01-10T18:57:50.033Z"
		},
		{
			"id": 365,
			"name": "Tricia Lange",
			"status": "Alive",
			"species": "Human",
			"type": "",
			"gender": "Female",
			"origin": {
				"name": "Earth (Replacement Dimension)",
				"url": "https://rickandmortyapi.com/api/location/20"
			},
			"location": {
				"name": "Earth (Replacement Dimension)",
				"url": "https://rickandmortyapi.com/api/location/20"
			},
			"image": "https://rickandmortyapi.com/api/character/avatar/365.jpeg",
			"episode": [
				"https://rickandmortyapi.com/api/episode/26",
				"https://rickandmortyapi.com/api/episode/27",
				"https://rickandmortyapi.com/api/episode/36",
				"https://rickandmortyapi.com/api/episode/38",
				"https://rickandmortyapi.com/api/episode/46"
			],
			"url": "https://rickandmortyapi.com/api/character/365",
			"created": "2018-01-10T18:59:31.842Z"
		},
		{
			"id": 366,
			"name": "Trunk Morty",
			"status": "Alive",
			"species": "Humanoid",
			"type": "Trunk-Person",
			"gender": "Male",
			"origin": {
				"name": "Trunk World",
				"url": "https://rickandmortyapi.com/api/location/65"
			},
			"location": {
				"name": "Citadel of Ricks",
				"url": "https://rickandmortyapi.com/api/location/3"
			},
			"image": "https://rickandmortyapi.com/api/character/avatar/366.jpeg",
			"episode": [
				"https://rickandmortyapi.com/api/episode/28"
			],
			"url": "https://rickandmortyapi.com/api/character/366",
			"created": "2018-01-10T19:03:13.558Z"
		},
		{
			"id": 367,
			"name": "Trunk Man",
			"status": "Alive",
			"species": "Humanoid",
			"type": "Trunk-Person",
			"gender": "Male",
			"origin": {
				"name": "Trunk World",
				"url": "https://rickandmortyapi.com/api/location/65"
			},
			"location": {
				"name": "Interdimensional Cable",
				"url": "https://rickandmortyapi.com/api/location/6"
			},
			"image": "https://rickandmortyapi.com/api/character/avatar/367.jpeg",
			"episode": [
				"https://rickandmortyapi.com/api/episode/8",
				"https://rickandmortyapi.com/api/episode/28"
			],
			"url": "https://rickandmortyapi.com/api/character/367",
			"created": "2018-01-10T19:05:34.004Z"
		},
		{
			"id": 368,
			"name": "Truth Tortoise",
			"status": "unknown",
			"species": "Mythological Creature",
			"type": "Omniscient being",
			"gender": "Male",
			"origin": {
				"name": "unknown",
				"url": ""
			},
			"location": {
				"name": "unknown",
				"url": ""
			},
			"image": "https://rickandmortyapi.com/api/character/avatar/368.jpeg",
			"episode": [
				"https://rickandmortyapi.com/api/episode/29"
			],
			"url": "https://rickandmortyapi.com/api/character/368",
			"created": "2018-01-10T19:14:35.885Z"
		},
		{
			"id": 369,
			"name": "Tusked Assassin",
			"status": "unknown",
			"species": "Alien",
			"type": "Tuskfish",
			"gender": "Male",
			"origin": {
				"name": "Resort Planet",
				"url": "https://rickandmortyapi.com/api/location/37"
			},
			"location": {
				"name": "Resort Planet",
				"url": "https://rickandmortyapi.com/api/location/37"
			},
			"image": "https://rickandmortyapi.com/api/character/avatar/369.jpeg",
			"episode": [
				"https://rickandmortyapi.com/api/episode/26"
			],
			"url": "https://rickandmortyapi.com/api/character/369",
			"created": "2018-01-10T19:17:00.093Z"
		},
		{
			"id": 370,
			"name": "Two Guys with Handlebar Mustaches",
			"status": "Alive",
			"species": "Human",
			"type": "",
			"gender": "Male",
			"origin": {
				"name": "unknown",
				"url": ""
			},
			"location": {
				"name": "Interdimensional Cable",
				"url": "https://rickandmortyapi.com/api/location/6"
			},
			"image": "https://rickandmortyapi.com/api/character/avatar/370.jpeg",
			"episode": [
				"https://rickandmortyapi.com/api/episode/8"
			],
			"url": "https://rickandmortyapi.com/api/character/370",
			"created": "2018-01-10T19:17:57.976Z"
		},
		{
			"id": 371,
			"name": "Tumblorkian",
			"status": "Alive",
			"species": "Alien",
			"type": "Tumblorkian",
			"gender": "Male",
			"origin": {
				"name": "Plopstar",
				"url": "https://rickandmortyapi.com/api/location/66"
			},
			"location": {
				"name": "Plopstar",
				"url": "https://rickandmortyapi.com/api/location/66"
			},
			"image": "https://rickandmortyapi.com/api/character/avatar/371.jpeg",
			"episode": [
				"https://rickandmortyapi.com/api/episode/19"
			],
			"url": "https://rickandmortyapi.com/api/character/371",
			"created": "2018-01-10T19:18:44.560Z"
		},
		{
			"id": 372,
			"name": "Unity",
			"status": "Alive",
			"species": "Alien",
			"type": "Hivemind",
			"gender": "Genderless",
			"origin": {
				"name": "unknown",
				"url": ""
			},
			"location": {
				"name": "Unity's Planet",
				"url": "https://rickandmortyapi.com/api/location/28"
			},
			"image": "https://rickandmortyapi.com/api/character/avatar/372.jpeg",
			"episode": [
				"https://rickandmortyapi.com/api/episode/14"
			],
			"url": "https://rickandmortyapi.com/api/character/372",
			"created": "2018-01-10T19:20:50.211Z"
		},
		{
			"id": 373,
			"name": "Unmuscular Michael",
			"status": "Alive",
			"species": "Human",
			"type": "",
			"gender": "Male",
			"origin": {
				"name": "unknown",
				"url": ""
			},
			"location": {
				"name": "Interdimensional Cable",
				"url": "https://rickandmortyapi.com/api/location/6"
			},
			"image": "https://rickandmortyapi.com/api/character/avatar/373.jpeg",
			"episode": [
				"https://rickandmortyapi.com/api/episode/8"
			],
			"url": "https://rickandmortyapi.com/api/character/373",
			"created": "2018-01-10T19:22:04.075Z"
		},
		{
			"id": 374,
			"name": "Vampire Master",
			"status": "Alive",
			"species": "Mythological Creature",
			"type": "Vampire",
			"gender": "Male",
			"origin": {
				"name": "Earth (Replacement Dimension)",
				"url": "https://rickandmortyapi.com/api/location/20"
			},
			"location": {
				"name": "Earth (Replacement Dimension)",
				"url": "https://rickandmortyapi.com/api/location/20"
			},
			"image": "https://rickandmortyapi.com/api/character/avatar/374.jpeg",
			"episode": [
				"https://rickandmortyapi.com/api/episode/18"
			],
			"url": "https://rickandmortyapi.com/api/character/374",
			"created": "2018-01-10T19:23:45.478Z"
		},
		{
			"id": 375,
			"name": "Vance Maximus",
			"status": "Dead",
			"species": "Human",
			"type": "",
			"gender": "Male",
			"origin": {
				"name": "unknown",
				"url": ""
			},
			"location": {
				"name": "Worldender's lair",
				"url": "https://rickandmortyapi.com/api/location/4"
			},
			"image": "https://rickandmortyapi.com/api/character/avatar/375.jpeg",
			"episode": [
				"https://rickandmortyapi.com/api/episode/25"
			],
			"url": "https://rickandmortyapi.com/api/character/375",
			"created": "2018-01-10T19:26:00.957Z"
		},
		{
			"id": 376,
			"name": "Veronica Ann Bennet",
			"status": "Alive",
			"species": "Alien",
			"type": "Gazorpian",
			"gender": "Female",
			"origin": {
				"name": "Gazorpazorp",
				"url": "https://rickandmortyapi.com/api/location/40"
			},
			"location": {
				"name": "Gazorpazorp",
				"url": "https://rickandmortyapi.com/api/location/40"
			},
			"image": "https://rickandmortyapi.com/api/character/avatar/376.jpeg",
			"episode": [
				"https://rickandmortyapi.com/api/episode/7"
			],
			"url": "https://rickandmortyapi.com/api/character/376",
			"created": "2018-01-10T19:27:06.246Z"
		},
		{
			"id": 377,
			"name": "Voltematron",
			"status": "Dead",
			"species": "Alien",
			"type": "Parasite",
			"gender": "unknown",
			"origin": {
				"name": "unknown",
				"url": ""
			},
			"location": {
				"name": "Earth (Replacement Dimension)",
				"url": "https://rickandmortyapi.com/api/location/20"
			},
			"image": "https://rickandmortyapi.com/api/character/avatar/377.jpeg",
			"episode": [
				"https://rickandmortyapi.com/api/episode/29"
			],
			"url": "https://rickandmortyapi.com/api/character/377",
			"created": "2018-01-10T19:29:08.116Z"
		},
		{
			"id": 378,
			"name": "Wall Crawling Rick",
			"status": "unknown",
			"species": "Humanoid",
			"type": "Lizard-Person",
			"gender": "Male",
			"origin": {
				"name": "unknown",
				"url": ""
			},
			"location": {
				"name": "Citadel of Ricks",
				"url": "https://rickandmortyapi.com/api/location/3"
			},
			"image": "https://rickandmortyapi.com/api/character/avatar/378.jpeg",
			"episode": [
				"https://rickandmortyapi.com/api/episode/22"
			],
			"url": "https://rickandmortyapi.com/api/character/378",
			"created": "2018-01-10T19:33:30.804Z"
		},
		{
			"id": 379,
			"name": "Wedding Bartender",
			"status": "unknown",
			"species": "Alien",
			"type": "",
			"gender": "Male",
			"origin": {
				"name": "unknown",
				"url": ""
			},
			"location": {
				"name": "Planet Squanch",
				"url": "https://rickandmortyapi.com/api/location/35"
			},
			"image": "https://rickandmortyapi.com/api/character/avatar/379.jpeg",
			"episode": [
				"https://rickandmortyapi.com/api/episode/21"
			],
			"url": "https://rickandmortyapi.com/api/character/379",
			"created": "2018-01-10T19:37:41.375Z"
		},
		{
			"id": 380,
			"name": "Unknown Rick",
			"status": "unknown",
			"species": "Human",
			"type": "",
			"gender": "Male",
			"origin": {
				"name": "unknown",
				"url": ""
			},
			"location": {
				"name": "unknown",
				"url": ""
			},
			"image": "https://rickandmortyapi.com/api/character/avatar/380.jpeg",
			"episode": [
				"https://rickandmortyapi.com/api/episode/22",
				"https://rickandmortyapi.com/api/episode/51"
			],
			"url": "https://rickandmortyapi.com/api/character/380",
			"created": "2018-01-10T19:44:22.262Z"
		}
	]
}